{
    "host":[ {
    "name" : "name_host_1",
    "hostname": "host_1",
    "user": "user_1",
    "env" : [{"PATH" : "/tmp", "OS" : "Linux"}]
},
{
    "name" : "name_host_2",
    "hostname": "host_2",
    "user": "user_2",
    "env" : [{"PATH" : "/home", "OS" : "Alt Linux"}]
} ] 
}
